Spotify Podcasts vs. Audio Features: Statistical Testing
…
#success <- as.factor(case_when(
#    data1$apple_stars <= low_stars & data1$apple_ratings <= low_ratings ~ "low",
#    data1$apple_stars >= top_stars & data1$apple_ratings >= top_ratings ~ "high",
#    TRUE ~ "medium"
#  ))

data1 <- data1 %>%
  mutate(data1, success) %>%
  relocate(success, .after = apple_ratings)
print(data1)

## # A tibble: 423 × 101
##        X show_…¹ episo…² episo…³ rss_l…⁴ apple…⁵ apple…⁶ apple…⁷ success apple…⁸
##    <int> <fct>   <fct>   <fct>   <fct>   <fct>     <dbl>   <int> <fct>   <fct>  
##  1     0 Kop On… "[\"ep… ['2-26… https:… https:…     4.5      22 low     Sports 
##  2     1 2 Mass… "['cre… ['5-14… https:… https:…     5        25 medium  Health…
##  3     2 2. Bun… "['2. … ['12-0… https:… https:…     4.9      17 medium  Sports 
##  4     3 2Minut… "['epi… ['7-13… https:… https:…     5        18 medium  Sports 
##  5     4 4th & … "[\"mu… ['9-23… https:… https:…     4.7     204 medium  Sports 
##  6     5 76ers … "['rew… ['10-0… https:… https:…     4.6     108 medium  Sports 
##  7     6 81 All… "['ser… ['9-29… https:… https:…     4.9      22 medium  Sports 
##  8     7 90 Day… "['rai… ['9-13… https:… https:…     4.5     146 medium  TV & F…
##  9     8 90s Ba… "['a p… ['4-25… https:… https:…     4.9     602 high    Comedy 
## 10     9 A Brea… "['whe… ['11-2… https:… https:…     4.2      36 low     Societ…
## # … with 413 more rows, 91 more variables: show_filename_prefix <fct>,
## #   episode_filename_prefix <fct>, duration <fct>,
## #   F0semitoneFrom27.5Hz_sma3nz_amean <dbl>,
## #   F0semitoneFrom27.5Hz_sma3nz_stddevNorm <dbl>,
## #   F0semitoneFrom27.5Hz_sma3nz_percentile20.0 <dbl>,
## #   F0semitoneFrom27.5Hz_sma3nz_percentile50.0 <dbl>,
## #   F0semitoneFrom27.5Hz_sma3nz_percentile80.0 <dbl>, …
…
